Text Mining Session - R Generation Meetup Group
…
Thats definitely some progress. Now we have our data on a modern dataframe. But notice that this data frame containing text isnt yet compatible with tidy text analysis, though. We cant filter out words or count which occur most frequently, since each row is made up of multiple combined words. We need to convert this so that it has one-token-per-document-per-row.

But what is a token in this context? A token is a meaningful unit of text, most often a word, that we are interested in using for further analysis, and tokenization is the process of splitting text into tokens.

Converting a sample text to tidy data format

The function unnest_tokens from tidytext package is the perfect solution for our needs here. It will break every word as a single observation, but keeping the remaining information - in our case here, the line. This process is called tokenisation.

library(tidytext)

unnest_tokens(tbl = text_as_df, 
              output = word, 
              input = text)

## # A tibble: 25 x 2
##     line word   
##    <int> <chr>  
##  1     1 because
##  2     1 i      
##  3     1 could  
##  4     1 not    
##  5     1 stop   
##  6     1 for    
##  7     1 death  
##  8     2 he     
##  9     2 kindly 
## 10     2 stopped
## #  with 15 more rows
…
Punctuation has been stripped.

By default, unnest_tokens() converts the tokens to lowercase, which makes them easier to compare or combine with other datasets.

Dealing with real text data

So far weve been dealing with a very simple sample of data, what is good for us to have our heads around some concepts of text mining but lets starting have a look at a real text file. For that, lets use text of Jane Austens six published novels. The concept is the same from the previous exercise, but this time, we wont create the data but rather import it from a CSV file. This data was exported from janeaustenr package developed by Julia Silge.

library(readr)

jane <- read_csv(file = "data/janeausten.csv")

jane

## # A tibble: 62,279 x 4
##    text                                     book         linenumber chapter
##    <chr>                                    <chr>             <dbl>   <dbl>
##  1 SENSE AND SENSIBILITY                    Sense & Sen          1       0
##  2 by Jane Austen                           Sense & Sen          2       0
##  3 (1811)                                   Sense & Sen          3       0
##  4 CHAPTER 1                                Sense & Sen          4       1
##  5 The family of Dashwood had long been se Sense & Sen          5       1
##  6 was large, and their residence was at N Sense & Sen          6       1
##  7 their property, where, for many generat Sense & Sen          7       1
##  8 respectable a manner as to engage the g Sense & Sen          8       1
##  9 surrounding acquaintance.  The late own Sense & Sen          9       1
## 10 man, who lived to a very advanced age,  Sense & Sen         10       1
## #  with 62,269 more rows

To work with this as a tidy dataset, we need to restructure it in the one-token-per-row format, which as we saw earlier is done with the unnest_tokens() function. This time I will be using the %>% (pipe) operator, as it makes the code way less repetitive and allow us to create a longer workflow with a dataset without the need of several objects cration. I encourage you to learn more about on the book R for Data Science by Hadley Wickham (2014). That book can be accessed for free here.

jane_tidy <- jane %>% 
  unnest_tokens(word,text)

jane_tidy

## # A tibble: 725,055 x 4
##    book                linenumber chapter word       
##    <chr>                    <dbl>   <dbl> <chr>      
##  1 Sense & Sensibility          1       0 sense      
##  2 Sense & Sensibility          1       0 and        
##  3 Sense & Sensibility          1       0 sensibility
##  4 Sense & Sensibility          2       0 by         
##  5 Sense & Sensibility          2       0 jane       
##  6 Sense & Sensibility          2       0 austen     
##  7 Sense & Sensibility          3       0 1811       
##  8 Sense & Sensibility          4       1 chapter    
##  9 Sense & Sensibility          4       1 1          
## 10 Sense & Sensibility          5       1 the        
## #  with 725,045 more rows
…
jane_tidy_words <- jane_tidy %>% 
  anti_join(stop_words)

jane_tidy_words

## # A tibble: 217,609 x 4
##    book                linenumber chapter word       
##    <chr>                    <dbl>   <dbl> <chr>      
##  1 Sense & Sensibility          1       0 sense      
##  2 Sense & Sensibility          1       0 sensibility
##  3 Sense & Sensibility          2       0 jane       
##  4 Sense & Sensibility          2       0 austen     
##  5 Sense & Sensibility          3       0 1811       
##  6 Sense & Sensibility          4       1 chapter    
##  7 Sense & Sensibility          4       1 1          
##  8 Sense & Sensibility          5       1 family     
##  9 Sense & Sensibility          5       1 dashwood   
## 10 Sense & Sensibility          5       1 settled    
## #  with 217,599 more rows
…
Word frequencies

Lets do the word count now, but focusing on a single book and counting words by chapter. We can do that simply by applying the dplyr function filter().

jane_tidy_words %>% 
  filter(book == "Emma") %>% 
  group_by(chapter) %>% 
  summarise(n = n()) %>% 
  arrange(desc(n))

## # A tibble: 56 x 2
##    chapter     n
##      <dbl> <int>
##  1      26  1843
##  2      42  1618
##  3       9  1361
##  4      38  1346
##  5      47  1263
##  6       8  1193
##  7      32  1116
##  8      50  1083
##  9      21  1072
## 10      54  1050
## #  with 46 more rows
…
Lexicons

library(tidytext)
sentiments

## # A tibble: 27,314 x 4
##    word        sentiment lexicon score
##    <chr>       <chr>     <chr>   <int>
##  1 abacus      trust     nrc        NA
##  2 abandon     fear      nrc        NA
##  3 abandon     negative  nrc        NA
##  4 abandon     sadness   nrc        NA
##  5 abandoned   anger     nrc        NA
##  6 abandoned   fear      nrc        NA
##  7 abandoned   negative  nrc        NA
##  8 abandoned   sadness   nrc        NA
##  9 abandonment anger     nrc        NA
## 10 abandonment fear      nrc        NA
## #  with 27,304 more rows
…
